<mxfile host="app.diagrams.net" modified="2023-09-21T00:37:18.782Z" agent="Mozilla/5.0 (Windows NT 10.0; Win64; x64) AppleWebKit/537.36 (KHTML, like Gecko) Chrome/116.0.0.0 Safari/537.36" version="21.8.0" etag="35EsUX0zJL5-wXnoLZ4K" type="gitlab">
  <diagram name="Página-1" id="Ve3IFpehJ-Cs7gWcsiuJ">
    <mxGraphModel>
      <root>
        <mxCell id="0" />
        <mxCell id="1" parent="0" />
      </root>
    </mxGraphModel>
  </diagram>
</mxfile>
